{
  "options_preset": {
    "Custom": {
      "level": {
        "LoadFrom": {
          "path": "levels\\ladders3.txt"
        }
      },
      "properties": null
    }
  },
  "players": [
    {
      "Tcp": {
        "host": null,
        "port": 31001,
        "accept_timeout": null,
        "timeout": null,
        "token": null
      }
    },
    "Keyboard"
  ]
}